Position Control Mode:

goalx: axes[0] : A (-1), D (1)
goalz: axes[1] : S (-1), W (1)
forcex: axes[2] : Z (-1), X (1)
forcez: axes[3] : E (-1), Q (1)
stiffnessx: axes[4] : L (-1), J (1)
stiffnessz: axes[5] : K (-1), I (1)
buttons[0]: U (1)
buttons[1]: N (1)
buttons[2]: O (1)
buttons[3]: M (1)

